{
    "openapi": "3.0.0",
    "info": {
        "title": "Desafio Bolton",
        "description": "Test for Backend Developer at Arquivei",
        "contact": {
            "email": "danielsatiro2003@yahoo.com.br"
        },
        "license": {
            "name": "Apache 2.0",
            "url": "http://www.apache.org/licenses/LICENSE-2.0.html"
        },
        "version": "1.0.0"
    },
    "paths": {
        "/v1/nfe/received": {
            "get": {
                "tags": [
                    "Nfe"
                ],
                "summary": "To recover in Arquivei Nfe info and record in BD",
                "description": "Returns empty",
                "operationId": "nfeReceived",
                "parameters": [
                    {
                        "name": "limit",
                        "in": "query",
                        "description": "The maximum amount of XMLs that will be returned",
                        "required": false,
                        "schema": {
                            "type": "integer"
                        }
                    },
                    {
                        "name": "cursor",
                        "in": "query",
                        "description": "The cursor position which the search will start from. This value is received after a successfull request on the body of the response as next.",
                        "required": false,
                        "schema": {
                            "type": "integer"
                        }
                    },
                    {
                        "name": "access_key",
                        "in": "query",
                        "description": "Filter by a list of access_key. Example using this filter = v1/nfe/received?access_key[]=44charKey",
                        "required": false,
                        "schema": {
                            "type": "string"
                        }
                    },
                    {
                        "name": "filter",
                        "in": "query",
                        "description": "Filter by presence or value of custom info using Arquivei's filter language",
                        "required": false,
                        "schema": {
                            "type": "string"
                        }
                    }
                ],
                "responses": {
                    "200": {
                        "description": "successful operation"
                    },
                    "400": {
                        "description": "Something wrong happened"
                    },
                    "500": {
                        "description": "Internal Server Error"
                    }
                },
                "security": [
                    {
                        "passaport": []
                    }
                ]
            }
        },
        "/v1/nfe/received/{accessKey}": {
            "get": {
                "tags": [
                    "Nfe"
                ],
                "summary": "To recover in local DB Nfe info by access key",
                "description": "Returns Nfe info",
                "operationId": "nfeReceivedByAccessKey",
                "parameters": [
                    {
                        "name": "accessKey",
                        "in": "path",
                        "description": "Filter by a list of access_key.",
                        "required": true,
                        "schema": {
                            "type": "string"
                        }
                    }
                ],
                "responses": {
                    "200": {
                        "description": "successful operation"
                    },
                    "400": {
                        "description": "Something wrong happened"
                    },
                    "404": {
                        "description": "Not found"
                    },
                    "500": {
                        "description": "Internal Server Error"
                    }
                },
                "security": [
                    {
                        "passaport": []
                    }
                ]
            }
        }
    }
}